R in Grenoble tutorials
…
---
class: clear
background-image: url("https://raw.githubusercontent.com/r-in-grenoble/r-in-grenoble.github.io/master/images/hex-dplyr_transparent.png")
background-size: 150px
background-position: 90% 8%

```r
# load starwars data
data(starwars)
# view data
starwars
```

```
## # A tibble: 87 x 13
##    name  height  mass hair_color skin_color eye_color birth_year gender
##    <chr>  <int> <dbl> <chr>      <chr>      <chr>          <dbl> <chr> 
##  1 Luke~    172    77 blond      fair       blue            19   male  
##  2 C-3PO    167    75 <NA>       gold       yellow         112   <NA>  
##  3 R2-D2     96    32 <NA>       white, bl~ red             33   <NA>  
##  4 Dart~    202   136 none       white      yellow          41.9 male  
##  5 Leia~    150    49 brown      light      brown           19   female
##  6 Owen~    178   120 brown, gr~ light      blue            52   male  
##  7 Beru~    165    75 brown      light      blue            47   female
##  8 R5-D4     97    32 <NA>       white, red red             NA   <NA>  
##  9 Bigg~    183    84 black      light      brown           24   male  
## 10 Obi-~    182    77 auburn, w~ fair       blue-gray       57   male  
## # ... with 77 more rows, and 5 more variables: homeworld <chr>,
## #   species <chr>, films <list>, vehicles <list>, starships <list>
```
…
--

* In increasing order

--

```r
new_data <- arrange(starwars, height)
```

--

```
## # A tibble: 87 x 13
##    name  height  mass hair_color skin_color eye_color birth_year gender
##    <chr>  <int> <dbl> <chr>      <chr>      <chr>          <dbl> <chr> 
##  1 Yoda      66    17 white      green      brown            896 male  
##  2 Ratt~     79    15 none       grey, blue unknown           NA male  
##  3 Wick~     88    20 brown      brown      brown              8 male  
##  4 Dud ~     94    45 none       blue, grey yellow            NA male  
##  5 R2-D2     96    32 <NA>       white, bl~ red               33 <NA>  
##  6 R4-P~     96    NA none       silver, r~ red, blue         NA female
##  7 R5-D4     97    32 <NA>       white, red red               NA <NA>  
##  8 Sebu~    112    40 none       grey, red  orange            NA male  
##  9 Gasg~    122    NA none       white, bl~ black             NA male  
## 10 Watto    137    NA black      blue, grey yellow            NA male  
## # ... with 77 more rows, and 5 more variables: homeworld <chr>,
## #   species <chr>, films <list>, vehicles <list>, starships <list>
```
…
# arrange()

* Use `desc(var)` to arrange in decreasing order

--

```r
new_data <- arrange(starwars, desc(height))
```

--

```
## # A tibble: 87 x 13
##    name  height  mass hair_color skin_color eye_color birth_year gender
##    <chr>  <int> <dbl> <chr>      <chr>      <chr>          <dbl> <chr> 
##  1 Yara~    264    NA none       white      yellow          NA   male  
##  2 Tarf~    234   136 brown      brown      blue            NA   male  
##  3 Lama~    229    88 none       grey       black           NA   male  
##  4 Chew~    228   112 brown      unknown    blue           200   male  
##  5 Roos~    224    82 none       grey       orange          NA   male  
##  6 Grie~    216   159 none       brown, wh~ green, y~       NA   male  
##  7 Taun~    213    NA none       grey       black           NA   female
##  8 Rugo~    206    NA none       green      orange          NA   male  
##  9 Tion~    206    80 none       grey       black           NA   male  
## 10 Dart~    202   136 none       white      yellow          41.9 male  
## # ... with 77 more rows, and 5 more variables: homeworld <chr>,
## #   species <chr>, films <list>, vehicles <list>, starships <list>
```
…
# arrange()

* Possible to use multiple variables (categorical)

--

```r
new_data <- arrange(starwars, hair_color, height)
```

--

```
## # A tibble: 87 x 13
##    name  height  mass hair_color skin_color eye_color birth_year gender
##    <chr>  <int> <dbl> <chr>      <chr>      <chr>          <dbl> <chr> 
##  1 Mon ~    150  NA   auburn     fair       blue              48 female
##  2 Wilh~    180  NA   auburn, g~ fair       blue              64 male  
##  3 Obi-~    182  77   auburn, w~ fair       blue-gray         57 male  
##  4 Watto    137  NA   black      blue, grey yellow            NA male  
##  5 Shmi~    163  NA   black      fair       brown             72 female
##  6 Barr~    166  50   black      yellow     blue              40 female
##  7 Lumi~    170  56.2 black      yellow     blue              58 female
##  8 Eeth~    171  NA   black      brown      brown             NA male  
##  9 Land~    177  79   black      dark       brown             31 male  
## 10 Bigg~    183  84   black      light      brown             24 male  
## # ... with 77 more rows, and 5 more variables: homeworld <chr>,
## #   species <chr>, films <list>, vehicles <list>, starships <list>
```
…
--

* variables can be specified explicitly

--

```r
new_data <- select(starwars, name, height, mass)
```

--

```
## # A tibble: 87 x 3
##    name               height  mass
##    <chr>               <int> <dbl>
##  1 Luke Skywalker        172    77
##  2 C-3PO                 167    75
##  3 R2-D2                  96    32
##  4 Darth Vader           202   136
##  5 Leia Organa           150    49
##  6 Owen Lars             178   120
##  7 Beru Whitesun lars    165    75
##  8 R5-D4                  97    32
##  9 Biggs Darklighter     183    84
## 10 Obi-Wan Kenobi        182    77
## # ... with 77 more rows
```
…
# select()

* as a range of variables

--

```r
new_data <- select(starwars, name : mass)
```

--

```
## # A tibble: 87 x 3
##    name               height  mass
##    <chr>               <int> <dbl>
##  1 Luke Skywalker        172    77
##  2 C-3PO                 167    75
##  3 R2-D2                  96    32
##  4 Darth Vader           202   136
##  5 Leia Organa           150    49
##  6 Owen Lars             178   120
##  7 Beru Whitesun lars    165    75
##  8 R5-D4                  97    32
##  9 Biggs Darklighter     183    84
## 10 Obi-Wan Kenobi        182    77
## # ... with 77 more rows
```
…
# select()

* as indexes

--

```r
new_data <- select(starwars, 1, 3, 10:12)
```

--

```
## # A tibble: 87 x 5
##    name                mass species films     vehicles 
##    <chr>              <dbl> <chr>   <list>    <list>   
##  1 Luke Skywalker        77 Human   <chr [5]> <chr [2]>
##  2 C-3PO                 75 Droid   <chr [6]> <chr [0]>
##  3 R2-D2                 32 Droid   <chr [7]> <chr [0]>
##  4 Darth Vader          136 Human   <chr [4]> <chr [0]>
##  5 Leia Organa           49 Human   <chr [5]> <chr [1]>
##  6 Owen Lars            120 Human   <chr [3]> <chr [0]>
##  7 Beru Whitesun lars    75 Human   <chr [3]> <chr [0]>
##  8 R5-D4                 32 Droid   <chr [1]> <chr [0]>
##  9 Biggs Darklighter     84 Human   <chr [1]> <chr [0]>
## 10 Obi-Wan Kenobi        77 Human   <chr [6]> <chr [1]>
## # ... with 77 more rows
```
…
# select()

* you can drop columns with -

--

```r
new_data <- select(starwars, -name)
```

--

```
## # A tibble: 87 x 12
##    height  mass hair_color skin_color eye_color birth_year gender homeworld
##     <int> <dbl> <chr>      <chr>      <chr>          <dbl> <chr>  <chr>    
##  1    172    77 blond      fair       blue            19   male   Tatooine 
##  2    167    75 <NA>       gold       yellow         112   <NA>   Tatooine 
##  3     96    32 <NA>       white, bl~ red             33   <NA>   Naboo    
##  4    202   136 none       white      yellow          41.9 male   Tatooine 
##  5    150    49 brown      light      brown           19   female Alderaan 
##  6    178   120 brown, gr~ light      blue            52   male   Tatooine 
##  7    165    75 brown      light      blue            47   female Tatooine 
##  8     97    32 <NA>       white, red red             NA   <NA>   Tatooine 
##  9    183    84 black      light      brown           24   male   Tatooine 
## 10    182    77 auburn, w~ fair       blue-gray       57   male   Stewjon  
## # ... with 77 more rows, and 4 more variables: species <chr>,
## #   films <list>, vehicles <list>, starships <list>
```
…
# select()

* there exists many helper functions such as: `starts_with()`, `ends_with()`, `contains()`, etc.

--

```r
new_data <- select(starwars, contains("color"))
```

--

```
## # A tibble: 87 x 3
##    hair_color    skin_color  eye_color
##    <chr>         <chr>       <chr>    
##  1 blond         fair        blue     
##  2 <NA>          gold        yellow   
##  3 <NA>          white, blue red      
##  4 none          white       yellow   
##  5 brown         light       brown    
##  6 brown, grey   light       blue     
##  7 brown         light       blue     
##  8 <NA>          white, red  red      
##  9 black         light       brown    
## 10 auburn, white fair        blue-gray
## # ... with 77 more rows
```
…
# select()

* all these can be combined

--

```r
new_data <- select(starwars, name, contains("color"), 12)
```

--

```
## # A tibble: 87 x 5
##    name               hair_color    skin_color  eye_color vehicles 
##    <chr>              <chr>         <chr>       <chr>     <list>   
##  1 Luke Skywalker     blond         fair        blue      <chr [2]>
##  2 C-3PO              <NA>          gold        yellow    <chr [0]>
##  3 R2-D2              <NA>          white, blue red       <chr [0]>
##  4 Darth Vader        none          white       yellow    <chr [0]>
##  5 Leia Organa        brown         light       brown     <chr [1]>
##  6 Owen Lars          brown, grey   light       blue      <chr [0]>
##  7 Beru Whitesun lars brown         light       blue      <chr [0]>
##  8 R5-D4              <NA>          white, red  red       <chr [0]>
##  9 Biggs Darklighter  black         light       brown     <chr [0]>
## 10 Obi-Wan Kenobi     auburn, white fair        blue-gray <chr [1]>
## # ... with 77 more rows
```
…
# mutate()

* add new column (variable) that is a function of other functions

--

```r
new_data <- mutate(starwars, BMI = mass / height^2)
```

--

```
## # A tibble: 87 x 14
##    name  height  mass hair_color skin_color eye_color birth_year gender
##    <chr>  <int> <dbl> <chr>      <chr>      <chr>          <dbl> <chr> 
##  1 Luke~    172    77 blond      fair       blue            19   male  
##  2 C-3PO    167    75 <NA>       gold       yellow         112   <NA>  
##  3 R2-D2     96    32 <NA>       white, bl~ red             33   <NA>  
##  4 Dart~    202   136 none       white      yellow          41.9 male  
##  5 Leia~    150    49 brown      light      brown           19   female
##  6 Owen~    178   120 brown, gr~ light      blue            52   male  
##  7 Beru~    165    75 brown      light      blue            47   female
##  8 R5-D4     97    32 <NA>       white, red red             NA   <NA>  
##  9 Bigg~    183    84 black      light      brown           24   male  
## 10 Obi-~    182    77 auburn, w~ fair       blue-gray       57   male  
## # ... with 77 more rows, and 6 more variables: homeworld <chr>,
## #   species <chr>, films <list>, vehicles <list>, starships <list>,
## #   BMI <dbl>
```
…
# mutate()

```r
# view BMI
new_data <- select(new_data, BMI, everything())
```

--

```
## # A tibble: 87 x 14
##        BMI name  height  mass hair_color skin_color eye_color birth_year
##      <dbl> <chr>  <int> <dbl> <chr>      <chr>      <chr>          <dbl>
##  1 0.00260 Luke~    172    77 blond      fair       blue            19  
##  2 0.00269 C-3PO    167    75 <NA>       gold       yellow         112  
##  3 0.00347 R2-D2     96    32 <NA>       white, bl~ red             33  
##  4 0.00333 Dart~    202   136 none       white      yellow          41.9
##  5 0.00218 Leia~    150    49 brown      light      brown           19  
##  6 0.00379 Owen~    178   120 brown, gr~ light      blue            52  
##  7 0.00275 Beru~    165    75 brown      light      blue            47  
##  8 0.00340 R5-D4     97    32 <NA>       white, red red             NA  
##  9 0.00251 Bigg~    183    84 black      light      brown           24  
## 10 0.00232 Obi-~    182    77 auburn, w~ fair       blue-gray       57  
## # ... with 77 more rows, and 6 more variables: gender <chr>,
## #   homeworld <chr>, species <chr>, films <list>, vehicles <list>,
## #   starships <list>
```
…
* you can reference to newly created variables in same command 
* retain newly created variables only using `transmute()` instead of `mutate()`

--

```r
new_data <- transmute(starwars, 
                      height_m = height/100,
                      BMI = mass / height_m^2)
```

--

```
## # A tibble: 87 x 2
##    height_m   BMI
##       <dbl> <dbl>
##  1     1.72  26.0
##  2     1.67  26.9
##  3     0.96  34.7
##  4     2.02  33.3
##  5     1.5   21.8
##  6     1.78  37.9
##  7     1.65  27.5
##  8     0.97  34.0
##  9     1.83  25.1
## 10     1.82  23.2
## # ... with 77 more rows
```
…
--

```r
new_data <- transmute(starwars, 
                      height_m = height/100,
                      BMI = BMI_function(height_m, mass))
```

--

```
## # A tibble: 87 x 2
##    height_m   BMI
##       <dbl> <dbl>
##  1     1.72  26.0
##  2     1.67  26.9
##  3     0.96  34.7
##  4     2.02  33.3
##  5     1.5   21.8
##  6     1.78  37.9
##  7     1.65  27.5
##  8     0.97  34.0
##  9     1.83  25.1
## 10     1.82  23.2
## # ... with 77 more rows
```
…
# summarise() & group_by()

* useful when combined with `group_by()` to apply summaries by group

--

```r
starwars <- group_by(starwars, species)
```

--

```
## # A tibble: 87 x 13
## # Groups:   species [38]
##    name  height  mass hair_color skin_color eye_color birth_year gender
##    <chr>  <int> <dbl> <chr>      <chr>      <chr>          <dbl> <chr> 
##  1 Luke~    172    77 blond      fair       blue            19   male  
##  2 C-3PO    167    75 <NA>       gold       yellow         112   <NA>  
##  3 R2-D2     96    32 <NA>       white, bl~ red             33   <NA>  
##  4 Dart~    202   136 none       white      yellow          41.9 male  
##  5 Leia~    150    49 brown      light      brown           19   female
##  6 Owen~    178   120 brown, gr~ light      blue            52   male  
##  7 Beru~    165    75 brown      light      blue            47   female
##  8 R5-D4     97    32 <NA>       white, red red             NA   <NA>  
##  9 Bigg~    183    84 black      light      brown           24   male  
## 10 Obi-~    182    77 auburn, w~ fair       blue-gray       57   male  
## # ... with 77 more rows, and 5 more variables: homeworld <chr>,
## #   species <chr>, films <list>, vehicles <list>, starships <list>
```
---
background-image: url("https://raw.githubusercontent.com/r-in-grenoble/r-in-grenoble.github.io/master/images/hex-dplyr_transparent.png")
background-size: 150px
background-position: 90% 8%

# summarise() & group_by()

* useful when combined with `group_by()` to apply summaries by group

```r
starwars <- group_by(starwars, species)
```

```
## # A tibble: 87 x 13
*## # Groups:   species [38]
##    name  height  mass hair_color skin_color eye_color birth_year gender
##    <chr>  <int> <dbl> <chr>      <chr>      <chr>          <dbl> <chr> 
##  1 Luke~    172    77 blond      fair       blue            19   male  
##  2 C-3PO    167    75 <NA>       gold       yellow         112   <NA>  
##  3 R2-D2     96    32 <NA>       white, bl~ red             33   <NA>  
##  4 Dart~    202   136 none       white      yellow          41.9 male  
##  5 Leia~    150    49 brown      light      brown           19   female
##  6 Owen~    178   120 brown, gr~ light      blue            52   male  
##  7 Beru~    165    75 brown      light      blue            47   female
##  8 R5-D4     97    32 <NA>       white, red red             NA   <NA>  
##  9 Bigg~    183    84 black      light      brown           24   male  
## 10 Obi-~    182    77 auburn, w~ fair       blue-gray       57   male  
## # ... with 77 more rows, and 5 more variables: homeworld <chr>,
## #   species <chr>, films <list>, vehicles <list>, starships <list>
```
…
# summarise() & group_by()

```r
new_summary <- summarise(starwars, 
                         mean_height = mean(height, na.rm = TRUE),
                         sd_height = sd(height, na.rm = TRUE))
```

--

```
## # A tibble: 38 x 3
##    species   mean_height sd_height
##    <chr>           <dbl>     <dbl>
##  1 <NA>              160      42.7
##  2 Aleena             79     NaN  
##  3 Besalisk          198     NaN  
##  4 Cerean            198     NaN  
##  5 Chagrian          196     NaN  
##  6 Clawdite          168     NaN  
##  7 Droid             140      52.0
##  8 Dug               112     NaN  
##  9 Ewok               88     NaN  
## 10 Geonosian         183     NaN  
## # ... with 28 more rows
```
…
# summarise() & group_by()

```r
summarise(starwars, 
          n = n(),
          miss_height = sum(is.na(height)),
          miss_mass = sum(is.na(mass)),
          mean_BMI = mean_BMI(mass, height))
```

```
## # A tibble: 38 x 5
##    species       n miss_height miss_mass mean_BMI
##    <chr>     <int>       <int>     <int>    <dbl>
##  1 <NA>          5           1         4     15.1
##  2 Aleena        1           0         0     24.0
##  3 Besalisk      1           0         0     26.0
##  4 Cerean        1           0         0     20.9
##  5 Chagrian      1           0         1    NaN  
##  6 Clawdite      1           0         0     19.5
##  7 Droid         5           1         1     32.7
##  8 Dug           1           0         0     31.9
##  9 Ewok          1           0         0     25.8
## 10 Geonosian     1           0         0     23.9
## # ... with 28 more rows
```
…
# summarise() & group_by()

```r
summarise(starwars, 
          n = n(),
          miss_height = sum(is.na(height)),
          miss_mass = sum(is.na(mass)),
          mean_BMI = mean_BMI(mass, height))
```

```
## # A tibble: 38 x 5
##    species       n miss_height miss_mass mean_BMI
##    <chr>     <int>       <int>     <int>    <dbl>
##  1 <NA>          5           1         4     15.1
##  2 Aleena        1           0         0     24.0
##  3 Besalisk      1           0         0     26.0
##  4 Cerean        1           0         0     20.9
##  5 Chagrian      1           0         1    NaN  
##  6 Clawdite      1           0         0     19.5
*##  7 Droid         5           1         1     32.7
##  8 Dug           1           0         0     31.9
##  9 Ewok          1           0         0     25.8
## 10 Geonosian     1           0         0     23.9
## # ... with 28 more rows
```
…
# Solution

* Find from which planet the most starwars characters come from

```r
starwars %>%
  filter(!is.na(homeworld)) %>%
  group_by(homeworld) %>%
  summarise(n = n()) %>%
  arrange(desc(n))
```

```
## # A tibble: 48 x 2
##    homeworld       n
##    <chr>       <int>
##  1 Naboo          11
##  2 Tatooine       10
##  3 Alderaan        3
##  4 Coruscant       3
##  5 Kamino          3
##  6 Corellia        2
##  7 Kashyyyk        2
##  8 Mirial          2
##  9 Ryloth          2
## 10 Aleen Minor     1
## # ... with 38 more rows
```
…
# Solution

* Which species has the heaviest mean weight?

```r
starwars %>%
  group_by(species) %>%
  summarise(mean_weight = mean(mass, na.rm = TRUE)) %>%
  arrange(desc(mean_weight)) %>%
  mutate(rank = dense_rank(desc(mean_weight)))
```

```
## # A tibble: 38 x 3
##    species      mean_weight  rank
##    <chr>              <dbl> <int>
##  1 Hutt              1358       1
##  2 Kaleesh            159       2
##  3 Wookiee            124       3
##  4 Trandoshan         113       4
##  5 Besalisk           102       5
##  6 Neimodian           90       6
##  7 Kaminoan            88       7
##  8 Nautolan            87       8
##  9 Mon Calamari        83       9
## 10 Human               82.8    10
## # ... with 28 more rows
```
…
